{
	"metadata": {
		"formatVersion": 1,
		"type": "VisEduCG",
		"generatedBy": "ExportadorJSON",
		"objects": 4,
		"textures": 1
	},
	"urlBaseType": "relativeToVisEduCG",
	"itens": {
		"Item_7": {
			"nome": "Renderizador",
			"visible": true,
			"corLimpar": 0,
			"tipo": 6,
			"filhos": {
				"Item_8": {
					"nome": "Camera 1",
					"visible": true,
					"valorXYZ": [0,0,600],
					"lookAt": [0,0,0],
					"near": 50,
					"far": 800,
					"fov": 45,
					"tipo": 0
				},
				"Item_9": {
					"nome": "Objeto Grafico 1",
					"visible": true,
					"tipo": 5,
					"filhos": {
						"Item_10": {
							"nome": "Cubo 1",
							"visible": true,
							"valorXYZ": [100,100,100],
							"posicao": [150,100,0],
							"propriedadeCor": 16777215,
							"textura": "",
							"usarTextura": true,
							"tipo": 4
						}
					}
				}
			}
		}
	},
	"textures": {
		"": {
			"url": "img/texturas/logoGCG.png",
			"repeat": [1,1],
			"offset": [0,0],
			"magFilter": "LinearFilter",
			"minFilter": "LinearMipMapLinearFilter",
			"anisotropy": 1
		}
	}
}